{
  "version": "14.0.4",
  "vulnerabilities": [
    {
      "id": "c5e96787d78faa8cbc9b4df38e035408d5a9927581e59a5f95a3fe3ec027d1dc",
      "category": "sast",
      "message": "All Application Load Balancers (ALB) should block connection requests over HTTP",
      "description": "'Resources.ElasticLoadBalancer.Listeners.Protocol' equals to 'HTTP'",
      "cve": "",
      "severity": "Critical",
      "scanner": {
        "id": "AnalyzerID",
        "name": "AnalyzerName"
      },
      "location": {
        "file": "aws/services/ElasticLoadBalancing/ELB_Access_Logs_And_Connection_Draining.yaml",
        "start_line": 393
      },
      "identifiers": [
        {
          "type": "AnalyzerID_id",
          "name": "ALB Listening on HTTP",
          "value": "275a3217-ca37-40c1-a6cf-bb57d245ab32",
          "url": "https://docs.aws.amazon.com/AWSCloudFormation/latest/UserGuide/aws-properties-ec2-elb-listener.html#cfn-ec2-elb-listener-protocol"
        }
      ]
    }
  ],
  "scan": {
    "scanner": {
      "id": "",
      "name": "",
      "vendor": {
        "name": ""
      },
      "version": ""
    },
    "type": ""
  }
}
