{
  "version": "14.0.4",
  "vulnerabilities": [
    {
      "id": "02bde01c4ef18a8d4eb282cc552261ab499cb82e38abc4bbc4a047c011373070",
      "category": "sast",
      "message": "Improper Neutralization of Directives in Dynamically Evaluated Code ('Eval Injection')",
      "description": "Detected the use of eval(). eval() can be dangerous if used to evaluate\ndynamic content. If this content can be input from outside the program, this\nmay be a code injection vulnerability. Ensure evaluated content is not definable\nby external sources. Consider using safer ast.literal_eval.\n",
      "cve": "",
      "severity": "Medium",
      "scanner": { "id": "AnalyzerID", "name": "AnalyzerName" },
      "location": {
        "file": "tests/test-ignore-yes.py",
        "start_line": 6,
        "end_line": 6
      },
      "identifiers": [
        {
          "type": "AnalyzerID_id",
          "name": "bandit.B307",
          "value": "bandit.B307"
        },
        {
          "type": "cwe",
          "name": "CWE-95",
          "value": "95",
          "url": "https://cwe.mitre.org/data/definitions/95.html"
        },
        { "type": "owasp", "name": "Injection", "value": "A1" }
      ]
    },
    {
      "id": "02bde01c4ef18a8d4eb282cc552261ab499cb82e38abc4bbc4a047c011373070",
      "category": "sast",
      "message": "Improper Neutralization of Directives in Dynamically Evaluated Code ('Eval Injection')",
      "description": "Detected the use of eval(). eval() can be dangerous if used to evaluate\ndynamic content. If this content can be input from outside the program, this\nmay be a code injection vulnerability. Ensure evaluated content is not definable\nby external sources. Consider using safer ast.literal_eval.\n",
      "cve": "",
      "severity": "Medium",
      "scanner": { "id": "AnalyzerID", "name": "AnalyzerName" },
      "location": {
        "file": "tests/test-ignore-yes.py",
        "start_line": 14,
        "end_line": 16
      },
      "identifiers": [
        {
          "type": "AnalyzerID_id",
          "name": "bandit.B307",
          "value": "bandit.B307"
        },
        {
          "type": "cwe",
          "name": "CWE-95",
          "value": "95",
          "url": "https://cwe.mitre.org/data/definitions/95.html"
        },
        { "type": "owasp", "name": "Injection", "value": "A1" }
      ]
    }
  ],
  "scan": {
    "scanner": {
      "id": "",
      "name": "",
      "vendor": { "name": "" },
      "version": ""
    },
    "type": ""
  }
}